{
  "variables": {
    "box_basename": "ubuntu-22.04",
    "build_directory": "./builds",
    "build_timestamp": "{{isotime \"20060102150405\"}}",
    "cpus": "2",
    "disk_size": "65536",
    "git_revision": "__unknown_git_revision__",
    "guest_additions_url": "",
    "headless": "",
    "http_directory": "{{template_dir}}/http",
    "http_proxy": "{{env `http_proxy`}}",
    "https_proxy": "{{env `https_proxy`}}",
    "memory": "4096",
    "name": "ubuntu-22.04",
    "no_proxy": "{{env `no_proxy`}}",
    "template": "ubuntu-22.04-arm64",
    "version": "TIMESTAMP"
  },
  "provisioners": [
    {
      "type": "shell",
      "execute_command": "echo 'vagrant' | {{.Vars}} sudo -S -E bash '{{.Path}}'",
      "scripts": [
        "scripts/setup.sh", 
        "scripts/desktop.sh",
        "scripts/git.sh",
        "scripts/ui-tools.sh",
        "scripts/utilities.sh",
        "scripts/terraform.sh",
        "scripts/chrome.sh",
        "scripts/python.sh",
        "scripts/cleanup.sh"
      ]
    }
  ],
  "builders": [
    {
      "type": "parallels-iso",
      "boot_command": [
        " <wait>",
        " <wait>",
        " <wait>",
        " <wait>",
        " <wait>",
        "c",
        "<wait>",
        "set gfxpayload=keep",
        "<enter><wait>",
        "linux /casper/vmlinuz quiet<wait>",
        " autoinstall<wait>",
        " ds=nocloud-net<wait>",
        "\\;s=http://<wait>",
        "{{.HTTPIP}}<wait>",
        ":{{.HTTPPort}}/<wait>",
        " ---",
        "<enter><wait>",
        "initrd /casper/initrd<wait>",
        "<enter><wait>",
        "boot<enter><wait>"
      ],
      "boot_wait": "5s",
      "cpus": "{{ user `cpus` }}",
      "disk_size": "{{user `disk_size`}}",
      "hard_drive_interface": "sata",
      "guest_os_type": "ubuntu",
      "http_directory": "{{template_dir}}/http",
      "iso_checksum": "c209ab013280d3cd26a344def60b7b19fbb427de904ea285057d94ca6ac82dd5",
      "iso_urls": [
        "iso/ubuntu-22.04-live-server-arm64.iso",
        "https://cdimage.ubuntu.com/releases/22.04/release/ubuntu-22.04-live-server-arm64.iso"
      ],
      "memory": "{{ user `memory` }}",
      "output_directory": "{{ user `build_directory` }}/packer-{{user `template`}}-parallels",
      "parallels_tools_flavor": "lin-arm",
      "parallels_tools_mode": "upload",
      "parallels_tools_guest_path": "/home/vagrant/parallels-tools-linux.iso",
      "prlctl_version_file": "/home/vagrant/parallels-tools-version.txt",
      "prlctl": [
        ["set", "{{.Name}}", "--memsize", "{{ user `memory` }}"],
        ["set", "{{.Name}}", "--cpus", "{{ user `cpus` }}"],
        ["set", "{{.Name}}", "--3d-accelerate", "highest"],
        ["set", "{{.Name}}", "--hypervisor-type", "apple"],
        ["set", "{{.Name}}", "--adaptive-hypervisor", "on"],
        ["set", "{{.Name}}", "--videosize", "1096"],
        ["set", "{{.Name}}", "--pmu-virt", "on"],
        ["set", "{{.Name}}", "--faster-vm", "on"]
      ],
      "shutdown_command": "echo 'vagrant' | sudo -S shutdown -P now",
      "ssh_password": "vagrant",
      "ssh_port": 22,
      "ssh_timeout": "120m",
      "ssh_username": "vagrant",
      "vm_name": "packer-ubuntu-22.04-arm64"
    },
    {
      "type": "qemu",
      "boot_command": [
        " <wait>",
        " <wait>",
        " <wait>",
        " <wait>",
        " <wait>",
        "c",
        "<wait>",
        "set gfxpayload=keep",
        "<enter><wait>",
        "linux /casper/vmlinuz quiet<wait>",
        " autoinstall<wait>",
        " ds=nocloud-net<wait>",
        "\\;s=http://<wait>",
        "{{.HTTPIP}}<wait>",
        ":{{.HTTPPort}}/<wait>",
        " ---",
        "<enter><wait>",
        "initrd /casper/initrd<wait>",
        "<enter><wait>",
        "boot<enter><wait>"
      ],
      "boot_wait": "5s",
      "cpus": "{{ user `cpus` }}",
      "disk_size": "{{user `disk_size`}}",
      "http_directory": "{{template_dir}}/http",
      "iso_checksum": "c209ab013280d3cd26a344def60b7b19fbb427de904ea285057d94ca6ac82dd5",
      "iso_urls": [
        "iso/ubuntu-22.04-live-server-arm64.iso",
        "https://cdimage.ubuntu.com/releases/22.04/release/ubuntu-22.04-live-server-arm64.iso"
      ],
      "memory": "{{ user `memory` }}",
      "output_directory": "{{ user `build_directory` }}/packer-{{user `template`}}-qemu",
      "shutdown_command": "echo 'vagrant' | sudo -S shutdown -P now",
      "ssh_password": "vagrant",
      "ssh_port": 22,
      "ssh_timeout": "120m",
      "ssh_username": "vagrant",
      "vm_name": "packer-qemu-ubuntu-22.04-arm64"
    }
  ],
  "post-processors": [
    [
      {
        "type": "vagrant",
        "vagrantfile_template": "templates/Vagrantfile.template",
        "output": "testbox_{{.Provider}}_arm.box",
        "compression_level": 9
      }
    ]
  ]
}
  
